com\bolze\rockpaperscissors\Result$1.class
com\bolze\rockpaperscissors\InputReader.class
com\bolze\rockpaperscissors\MatchResult.class
com\bolze\rockpaperscissors\Messages.class
com\bolze\rockpaperscissors\strategy\PaperStrategy.class
com\bolze\rockpaperscissors\RoundInfo.class
com\bolze\rockpaperscissors\RoundService.class
com\bolze\rockpaperscissors\RockPaperScissorsApplication.class
com\bolze\rockpaperscissors\Shape$1.class
com\bolze\rockpaperscissors\MatchService.class
com\bolze\rockpaperscissors\MatchResultPrinter.class
com\bolze\rockpaperscissors\strategy\Strategy.class
com\bolze\rockpaperscissors\Shape.class
com\bolze\rockpaperscissors\strategy\RandomStrategy.class
com\bolze\rockpaperscissors\Result.class
com\bolze\rockpaperscissors\strategy\RockStrategy.class
