com\bolze\rockpaperscissors\MatchResultPrinterTest.class
com\bolze\rockpaperscissors\InputReaderTest.class
com\bolze\rockpaperscissors\MatchServiceTest.class
com\bolze\rockpaperscissors\RoundServiceTest.class
